…
scm = StructuralCausalModel(dgp; treatment = :A, response = :Y, confounders = [:W])
```

Once a `StructuralCausalModel` is defined, one can then draw a randomly-generated `CausalTable` according to the SCM using the `rand` function:

```
ctbl = rand(scm, 100)

CausalTable
┌───────────┬───────┬───────────┐
│         W │     A │         Y │
│   Float64 │  Bool │   Float64 │
├───────────┼───────┼───────────┤
│  0.381527 │  true │  0.809227 │
│  0.576206 │  true │   3.22163 │
│  0.380546 │ false │   1.70505 │
│  0.226648 │ false │  0.185022 │
│     ⋮     │   ⋮   │     ⋮     │
│  0.385836 │ false │ -0.392848 │
│  0.204554 │ false │  0.638084 │
│  0.232177 │  true │  0.832707 │
│ 0.0465189 │ false │   1.29168 │
└───────────┴───────┴───────────┘
                  92 rows omitted
…
