Turning data into a CausalTable · CausalTables.jl
…
# get data in a Tables.jl-compliant format
tbl = BostonHousing().dataframe

# Wrapping the dataset in a CausalTable
ctbl = CausalTable(tbl; treatment = :NOX, response = :MEDV)
When only treatment and response are specified, all other variables are assumed to be confounders. However, one can also explicitly specify the causes of both treatment and response by passing them as a NamedTuple of lists to the CausalTable constructor. In the example below, we specify the causes of the treatment NOX only as [:CRIM, :INDUS], and the causes of the response MEDV are specified as [:CRIM, :INDUS, :NOX].

ctbl = CausalTable(tbl; treatment = :NOX, response = :MEDV,
                        causes = (NOX = [:CRIM, :INDUS], MEDV = [:CRIM, :INDUS, :NOX]))

CausalTable
┌─────────┬─────────┬─────────┬───────┬─────────┬─────────┬─────────┬───────────
│    CRIM │      ZN │   INDUS │  CHAS │     NOX │      RM │     AGE │     DIS  ⋯
│ Float64 │ Float64 │ Float64 │ Int64 │ Float64 │ Float64 │ Float64 │ Float64  ⋯
├─────────┼─────────┼─────────┼───────┼─────────┼─────────┼─────────┼───────────
│ 0.00632 │    18.0 │    2.31 │     0 │   0.538 │   6.575 │    65.2 │    4.09  ⋯
│ 0.02731 │     0.0 │    7.07 │     0 │   0.469 │   6.421 │    78.9 │  4.9671  ⋯
│ 0.02729 │     0.0 │    7.07 │     0 │   0.469 │   7.185 │    61.1 │  4.9671  ⋯
│ 0.03237 │     0.0 │    2.18 │     0 │   0.458 │   6.998 │    45.8 │  6.0622  ⋯
│ 0.06905 │     0.0 │    2.18 │     0 │   0.458 │   7.147 │    54.2 │  6.0622  ⋯
│ 0.02985 │     0.0 │    2.18 │     0 │   0.458 │    6.43 │    58.7 │  6.0622  ⋯
│ 0.08829 │    12.5 │    7.87 │     0 │   0.524 │   6.012 │    66.6 │  5.5605  ⋯
│ 0.14455 │    12.5 │    7.87 │     0 │   0.524 │   6.172 │    96.1 │  5.9505  ⋯
│    ⋮    │    ⋮    │    ⋮    │   ⋮   │    ⋮    │    ⋮    │    ⋮    │    ⋮     ⋱
│ 0.23912 │     0.0 │    9.69 │     0 │   0.585 │   6.019 │    65.3 │  2.4091  ⋯
│ 0.17783 │     0.0 │    9.69 │     0 │   0.585 │   5.569 │    73.5 │  2.3999  ⋯
│ 0.22438 │     0.0 │    9.69 │     0 │   0.585 │   6.027 │    79.7 │  2.4982  ⋯
│ 0.06263 │     0.0 │   11.93 │     0 │   0.573 │   6.593 │    69.1 │  2.4786  ⋯
│ 0.04527 │     0.0 │   11.93 │     0 │   0.573 │    6.12 │    76.7 │  2.2875  ⋯
│ 0.06076 │     0.0 │   11.93 │     0 │   0.573 │   6.976 │    91.0 │  2.1675  ⋯
│ 0.10959 │     0.0 │   11.93 │     0 │   0.573 │   6.794 │    89.3 │  2.3889  ⋯
│ 0.04741 │     0.0 │   11.93 │     0 │   0.573 │    6.03 │    80.8 │   2.505  ⋯
└─────────┴─────────┴─────────┴───────┴─────────┴─────────┴─────────┴───────────
                                                  6 columns and 490 rows omitted
…
